[2021-01-13 10:31:31] local.INFO: Login Activity | User: [9971 | PK1] | ipAddress: 122.179.129.167  
[2021-01-13 10:32:14] local.INFO: Login Activity | User: [9948 | cb02] | ipAddress: 122.179.129.167  
[2021-01-13 10:34:08] local.INFO: Login Activity | User: [9948 | cb02] | ipAddress: 122.179.129.167  
[2021-01-13 10:41:04] local.INFO: Login Activity | User: [9948 | cb02] | ipAddress: 122.179.129.167  
[2021-01-13 10:42:47] local.INFO: Login Activity | User: [9948 | cb02] | ipAddress: 122.179.129.167  
[2021-01-13 10:45:08] local.INFO: Login Activity | User: [9968 | Test5] | ipAddress: 122.179.129.167  
[2021-01-13 10:47:07] local.INFO: Login Activity | User: [9949 | cb03] | ipAddress: 2409:4062:197:f8d6:a0f9:8b5e:67fc:d847  
[2021-01-13 10:49:38] local.INFO: Login Activity | User: [9949 | cb03] | ipAddress: 2402:3a80:1a32:a7e2:3783:f06c:9f98:e8b1  
[2021-01-13 10:50:17] local.INFO: Login Activity | User: [9948 | cb02] | ipAddress: 122.179.129.167  
[2021-01-13 10:50:55] local.INFO: Login Activity | User: [9948 | cb02] | ipAddress: 122.179.129.167  
[2021-01-13 10:51:07] local.INFO: Login Activity | User: [9948 | cb02] | ipAddress: 122.179.129.167  
[2021-01-13 10:54:56] local.INFO: Login Activity | User: [9949 | cb03] | ipAddress: 2401:4900:4bb0:412f:1:0:15df:7a59  
[2021-01-13 11:01:09] local.INFO: Login Activity | User: [9948 | cb02] | ipAddress: 122.179.129.167  
[2021-01-13 11:16:35] local.INFO: Login Activity | User: [9963 | cb016] | ipAddress: 122.179.129.167  
[2021-01-13 11:18:14] local.INFO: Login Activity | User: [9961 | cb014] | ipAddress: 122.179.129.167  
[2021-01-13 11:18:27] local.INFO: Login Activity | User: [9952 | cb06] | ipAddress: 2401:4900:519e:ca11:1:0:8739:85cb  
[2021-01-13 11:22:14] local.INFO: Login Activity | User: [9961 | cb014] | ipAddress: 122.179.129.167  
[2021-01-13 11:24:26] local.INFO: Login Activity | User: [9966 | cb019] | ipAddress: 122.179.129.167  
[2021-01-13 11:25:14] local.INFO: Login Activity | User: [9956 | cb010] | ipAddress: 122.179.129.167  
[2021-01-13 11:26:02] local.INFO: Login Activity | User: [9961 | cb014] | ipAddress: 122.179.129.167  
[2021-01-13 11:31:41] local.INFO: Login Activity | User: [9952 | cb06] | ipAddress: 103.96.12.141  
[2021-01-13 11:36:21] local.INFO: Login Activity | User: [9952 | cb06] | ipAddress: 122.179.129.167  
[2021-01-13 11:44:00] local.INFO: Login Activity | User: [9992 | super] | ipAddress: 122.179.129.167  
[2021-01-13 11:52:18] local.INFO: Login Activity | User: [9963 | cb016] | ipAddress: 2401:4900:519e:ca11:1:0:8739:85cb  
[2021-01-13 11:58:10] local.INFO: Login Activity | User: [9951 | cb05] | ipAddress: 84.208.81.246  
[2021-01-13 11:58:18] local.INFO: Login Activity | User: [9951 | cb05] | ipAddress: 122.179.129.167  
[2021-01-13 11:58:56] local.INFO: Login Activity | User: [9986 | BT1] | ipAddress: 84.208.81.246  
